%YAML 1.1
%TAG !u! tag:unity3d.com,2011:
--- !u!114 &11400000
MonoBehaviour:
  m_ObjectHideFlags: 0
  m_PrefabParentObject: {fileID: 0}
  m_PrefabInternal: {fileID: 0}
  m_GameObject: {fileID: 0}
  m_Enabled: 1
  m_EditorHideFlags: 0
  m_Script: {fileID: 11500000, guid: 16f005fbcfc61684c82bf819bce9d63b, type: 3}
  m_Name: swordmelee
  m_EditorClassIdentifier: 
  ItemID: sword
  TargetInventoryName: MainInventory
  Usable: 0
  Equippable: 1
  Quantity: 1
  ItemName: Sword
  ShortDescription: sword
  Description: 
  CanMoveObject: 1
  CanSwapObject: 1
  Icon: {fileID: 21300028, guid: 2f65566cfac9241f1aa9ba1ab43dbccc, type: 3}
  Prefab: {fileID: 1157634356909016, guid: 280f3791f405f4283be02922d45fa3d5, type: 2}
  SpawnShape: 1
  PrefabDropMinDistance: {x: 2, y: 2, z: 0}
  PrefabDropMaxDistance: {x: 3, y: 3, z: 0}
  MaximumStack: 1
  ItemClass: 2
  TargetEquipmentInventoryName: WeaponInventory
  EquippedSound: {fileID: 0}
  UsedSound: {fileID: 0}
  MovedSound: {fileID: 0}
  DroppedSound: {fileID: 0}
  UseDefaultSoundsIfNull: 1
  EquippableWeapon: {fileID: 114268080607390956, guid: 4887fab05d9924f64913426c9cd9e0f9,
    type: 2}
