%YAML 1.1
%TAG !u! tag:unity3d.com,2011:
--- !u!1001 &100100000
Prefab:
  m_ObjectHideFlags: 1
  serializedVersion: 2
  m_Modification:
    m_TransformParent: {fileID: 0}
    m_Modifications: []
    m_RemovedComponents: []
  m_ParentPrefab: {fileID: 0}
  m_RootGameObject: {fileID: 1000010407495960}
  m_IsPrefabParent: 1
--- !u!1 &1000010407495960
GameObject:
  m_ObjectHideFlags: 0
  m_PrefabParentObject: {fileID: 0}
  m_PrefabInternal: {fileID: 100100000}
  serializedVersion: 5
  m_Component:
  - component: {fileID: 4000013472678096}
  - component: {fileID: 114000010616902070}
  m_Layer: 0
  m_Name: sword_weapon
  m_TagString: Untagged
  m_Icon: {fileID: 5721338939258241955, guid: 0000000000000000d000000000000000, type: 0}
  m_NavMeshLayer: 0
  m_StaticEditorFlags: 0
  m_IsActive: 1
--- !u!4 &4000013472678096
Transform:
  m_ObjectHideFlags: 1
  m_PrefabParentObject: {fileID: 0}
  m_PrefabInternal: {fileID: 100100000}
  m_GameObject: {fileID: 1000010407495960}
  m_LocalRotation: {x: 0, y: 0, z: 0, w: 1}
  m_LocalPosition: {x: -78.23566, y: -6.7416897, z: 0}
  m_LocalScale: {x: 1, y: 1, z: 1}
  m_Children: []
  m_Father: {fileID: 0}
  m_RootOrder: 0
  m_LocalEulerAnglesHint: {x: 0, y: 0, z: 0}
--- !u!114 &114000010616902070
MonoBehaviour:
  m_ObjectHideFlags: 1
  m_PrefabParentObject: {fileID: 0}
  m_PrefabInternal: {fileID: 100100000}
  m_GameObject: {fileID: 1000010407495960}
  m_Enabled: 1
  m_EditorHideFlags: 0
  m_Script: {fileID: 11500000, guid: a557e2b93323f4831a62221b200348c4, type: 3}
  m_Name: 
  m_EditorClassIdentifier: 
  TriggerMode: 0
  DelayBeforeUse: 0.05
  TimeBetweenUses: 0
  WeaponAttachmentOffset: {x: 0, y: 0, z: 0}
  FlipWeaponOnCharacterFlip: 1
  FlipValue: {x: -1, y: 1, z: 1}
  ParticleEffects:
  - {fileID: 0}
  - {fileID: 0}
  IdleAnimationParameter: 
  StartAnimationParameter: MeleeStart
  DelayBeforeUseAnimationParameter: 
  SingleUseAnimationParameter: 
  UseAnimationParameter: MeleeStart
  DelayBetweenUsesAnimationParameter: 
  StopAnimationParameter: 
  ReloadStartAnimationParameter: 
  ReloadAnimationParameter: 
  ReloadStopAnimationParameter: 
  WeaponAngleAnimationParameter: 
  WeaponAngleRelativeAnimationParameter: 
  WeaponStartSfx: {fileID: 0}
  WeaponUsedSfx: {fileID: 0}
  WeaponStopSfx: {fileID: 0}
  WeaponReloadSfx: {fileID: 0}
  LeftHandHandle: {fileID: 0}
  RightHandHandle: {fileID: 0}
  DamageAreaShape: 0
  AreaSize: {x: 2, y: 2}
  AreaOffset: {x: 1, y: 0}
  InitialDelay: 0
  ActiveDuration: 0.1
  _character: {fileID: 119040, guid: c9ca0934e1db35740b65c104cf6cb9bc, type: 2}
  TargetLayerMask:
    serializedVersion: 2
    m_Bits: 8960
  DamageCaused: 10
  Knockback: 2
  KnockbackForce: {x: 0, y: 0}
  InvincibilityDuration: 0.1
