%YAML 1.1
%TAG !u! tag:unity3d.com,2011:
--- !u!1001 &100100000
Prefab:
  m_ObjectHideFlags: 1
  serializedVersion: 2
  m_Modification:
    m_TransformParent: {fileID: 0}
    m_Modifications: []
    m_RemovedComponents: []
  m_ParentPrefab: {fileID: 0}
  m_RootGameObject: {fileID: 1316547679373852}
  m_IsPrefabParent: 1
--- !u!1 &1316547679373852
GameObject:
  m_ObjectHideFlags: 0
  m_PrefabParentObject: {fileID: 0}
  m_PrefabInternal: {fileID: 100100000}
  serializedVersion: 5
  m_Component:
  - component: {fileID: 4046217715545582}
  - component: {fileID: 61559406801448264}
  - component: {fileID: 114030998542256466}
  m_Layer: 0
  m_Name: guide
  m_TagString: Untagged
  m_Icon: {fileID: 0}
  m_NavMeshLayer: 0
  m_StaticEditorFlags: 0
  m_IsActive: 1
--- !u!4 &4046217715545582
Transform:
  m_ObjectHideFlags: 1
  m_PrefabParentObject: {fileID: 0}
  m_PrefabInternal: {fileID: 100100000}
  m_GameObject: {fileID: 1316547679373852}
  m_LocalRotation: {x: -0, y: -0, z: -0, w: 1}
  m_LocalPosition: {x: -21.279999, y: -61.679996, z: 0}
  m_LocalScale: {x: 1.5, y: 1.5, z: 1}
  m_Children: []
  m_Father: {fileID: 0}
  m_RootOrder: 0
  m_LocalEulerAnglesHint: {x: 0, y: 0, z: 0}
--- !u!61 &61559406801448264
BoxCollider2D:
  m_ObjectHideFlags: 1
  m_PrefabParentObject: {fileID: 0}
  m_PrefabInternal: {fileID: 100100000}
  m_GameObject: {fileID: 1316547679373852}
  m_Enabled: 1
  m_Density: 1
  m_Material: {fileID: 0}
  m_IsTrigger: 0
  m_UsedByEffector: 0
  m_UsedByComposite: 0
  m_Offset: {x: 0.05, y: 0.04}
  m_SpriteTilingProperty:
    border: {x: 0, y: 0, z: 0, w: 0}
    pivot: {x: 0, y: 0}
    oldSize: {x: 0, y: 0}
    newSize: {x: 0, y: 0}
    adaptiveTilingThreshold: 0
    drawMode: 0
    adaptiveTiling: 0
  m_AutoTiling: 0
  serializedVersion: 2
  m_Size: {x: 0.4, y: 0.66}
  m_EdgeRadius: 0
--- !u!114 &114030998542256466
MonoBehaviour:
  m_ObjectHideFlags: 1
  m_PrefabParentObject: {fileID: 0}
  m_PrefabInternal: {fileID: 100100000}
  m_GameObject: {fileID: 1316547679373852}
  m_Enabled: 1
  m_EditorHideFlags: 0
  m_Script: {fileID: 11500000, guid: 6432d8d1924b43748819ec079d9d2eed, type: 3}
  m_Name: 
  m_EditorClassIdentifier: 
  RequiresButtonActivationAbility: 0
  RequiresPlayerCharacter: 1
  AutoActivation: 1
  ShouldUpdateState: 1
  CanOnlyActivateIfGrounded: 0
  UnimitedActivations: 0
  MaxNumberOfActivations: 0
  DelayBetweenUses: 0
  AlwaysShowPrompt: 0
  ShowPromptWhenColliding: 1
  HidePromptAfterUse: 0
  PromptRelativePosition: {x: 0, y: 2, z: 0}
  TextBackgroundColor: {r: 0, g: 0, b: 0, a: 1}
  TextColor: {r: 1, g: 1, b: 1, a: 1}
  ArrowVisible: 1
  TextFont: {fileID: 0}
  TextSize: 14
  Alignment: 0
  itemdrop: {fileID: 0}
  skeleton: {fileID: 0}
  skeletonsprite: {fileID: 21300002, guid: fb0481c544b9546f6a513ea9b987214c, type: 3}
  gotitem: 0
  monster: {fileID: 0}
  jarak_monster: 0
  door: 0
  dooranim: {fileID: 0}
  dialogbox: {fileID: 199184, guid: 927a7e5e78367cc4ba304dae75c80ddf, type: 2}
  avatar: {fileID: 0}
  avatarlist: []
  HUD: {fileID: 0}
  item: {fileID: 0}
  FadeDuration: 0
  TransitionTime: 0.2
  DistanceFromTop: 3
  CanMoveWhileTalking: 0
  ButtonHandled: 1
  MessageDuration: 5
  ActivableMoreThanOnce: 0
  InactiveTime: 5
  Dialogue:
  - Press I to open Inventory
  Dialogue2: []
